<?xml version="1.0" encoding="utf-8"?>
<!-- Generator: Adobe Illustrator 19.1.0, SVG Export Plug-In . SVG Version: 6.00 Build 0)  -->
<svg version="1.1" id="Layer_1" xmlns="http://www.w3.org/2000/svg" xmlns:xlink="http://www.w3.org/1999/xlink" x="0px" y="0px"
	 viewBox="0 0 20 2" enable-background="new 0 0 20 2" xml:space="preserve">
<g>
	<g>
		<rect fill="#F48220" width="20" height="2"/>
	</g>
</g>
</svg>
